// Jest Snapshot v1, https://goo.gl/fbAQLP

exports[`Design management pagination component hides components when designs are empty 1`] = `<!---->`;

exports[`Design management pagination component renders navigation buttons 1`] = `
<div
  class="gl-display-flex gl-align-items-center"
>
  
  0 of 3
  
  <gl-button-group-stub
    class="gl-mx-5"
  >
    <gl-button-stub
      aria-label="Go to previous design"
      buttontextclasses=""
      category="primary"
      class="js-previous-design"
      disabled="true"
      icon="chevron-lg-left"
      size="medium"
      title="Go to previous design"
      variant="default"
    />
     
    <gl-button-stub
      aria-label="Go to next design"
      buttontextclasses=""
      category="primary"
      class="js-next-design"
      icon="chevron-lg-right"
      size="medium"
      title="Go to next design"
      variant="default"
    />
  </gl-button-group-stub>
</div>
`;
